module main

go 1.17

require go.uber.org/zap v1.21.0

require (
	github.com/magefile/mage v1.9.0 // indirect
	github.com/pkg/errors v0.9.1 // indirect
	go.elastic.co/ecszap v1.0.1 // indirect
	go.uber.org/atomic v1.7.0 // indirect
	go.uber.org/multierr v1.6.0 // indirect
)
